[0205/111220.191:ERROR:crash_report_database_win.cc(428)] unexpected header
[0205/111649.917:ERROR:crash_report_database_win.cc(428)] unexpected header
[0205/111825.295:ERROR:crash_report_database_win.cc(428)] unexpected header
[0205/231858.160:ERROR:crash_report_database_win.cc(428)] unexpected header
[0206/000303.462:ERROR:crash_report_database_win.cc(428)] unexpected header
[0206/140837.934:ERROR:crash_report_database_win.cc(428)] unexpected header
[0206/142147.109:ERROR:crash_report_database_win.cc(428)] unexpected header
[0208/114054.636:ERROR:crash_report_database_win.cc(428)] unexpected header
[0208/120344.532:ERROR:crash_report_database_win.cc(428)] unexpected header
[0209/200452.500:ERROR:crash_report_database_win.cc(428)] unexpected header
[0209/200533.347:ERROR:crash_report_database_win.cc(428)] unexpected header
[0209/201535.777:ERROR:crash_report_database_win.cc(428)] unexpected header
[0209/201840.341:ERROR:crash_report_database_win.cc(428)] unexpected header
[0213/193300.671:ERROR:crash_report_database_win.cc(428)] unexpected header
[0220/142732.260:ERROR:crash_report_database_win.cc(428)] unexpected header
[0221/181047.322:ERROR:crash_report_database_win.cc(428)] unexpected header
[0222/112857.075:ERROR:crash_report_database_win.cc(428)] unexpected header
[0222/114622.083:ERROR:crash_report_database_win.cc(428)] unexpected header
[0226/101215.527:ERROR:crash_report_database_win.cc(428)] unexpected header
[0226/101259.484:ERROR:crash_report_database_win.cc(428)] unexpected header
[0226/101436.731:ERROR:crash_report_database_win.cc(428)] unexpected header
[0226/101536.573:ERROR:crash_report_database_win.cc(428)] unexpected header
[0226/101607.219:ERROR:crash_report_database_win.cc(428)] unexpected header
[0226/101840.774:ERROR:crash_report_database_win.cc(428)] unexpected header
[0226/102809.372:ERROR:crash_report_database_win.cc(428)] unexpected header
[0226/104330.213:ERROR:crash_report_database_win.cc(428)] unexpected header
[0226/104356.532:ERROR:crash_report_database_win.cc(428)] unexpected header
[0227/150252.236:ERROR:crash_report_database_win.cc(428)] unexpected header
[0311/102820.474:ERROR:crash_report_database_win.cc(428)] unexpected header
[0311/113056.582:ERROR:crash_report_database_win.cc(428)] unexpected header
